`dsm` data formatting example • dsm
…
In the above code we have loaded the sf package. This is the package we will use to do most of our spatial work in segmenting the data. It has most of the tools expected from a GIS, though the package is still being developed so its functionality is always increasing.

Investigating the transects data we loaded, we can see it consists of a data.frame with some extra bits (the spatial information, including locations (geometry) and projection (CRS)):

transects

## Simple feature collection with 26 features and 1 field
## Geometry type: LINESTRING
## Dimension:     XY
## Bounding box:  xmin: -71.86948 ymin: 40.82944 xmax: -70.8944 ymax: 41.46521
## Geodetic CRS:  WGS 84
## # A tibble: 26 × 2
##    Transect                                 geometry
##       <dbl>                         <LINESTRING [°]>
##  1        1 (-71.86948 41.29969, -71.86581 41.25891)
##  2        2  (-71.82872 41.30738, -71.82145 41.2258)
##  3        3 (-71.78805 41.31562, -71.75676 40.94846)
##  4        4 (-71.74674 41.31728, -71.71394 40.92971)
##  5        5  (-71.70589 41.3241, -71.67156 40.91612)
##  6        6 (-71.66578 41.33943, -71.62329 40.82944)
##  7        7   (-71.5435 41.36397, -71.5064 40.91516)
##  8        8  (-71.5015 41.35994, -71.45266 40.82978)
##  9        9 (-71.46131 41.37378, -71.42458 40.92496)
## 10       10   (-71.421 41.38723, -71.37562 40.83641)
## # ℹ 16 more rows
…
Here we know the truncation used for the detection function was 1000m (the distances were collected in bins and this was the further bin), and since we’re trying to make our segments approximately square, we set the length to be twice that (since the truncation applies to either side of the transect), so 2000m.

Looking at what that did:

segs

## Simple feature collection with 26 features and 1 field
## Geometry type: LINESTRING
## Dimension:     XY
## Bounding box:  xmin: -71.86948 ymin: 40.82944 xmax: -70.8944 ymax: 41.46521
## Geodetic CRS:  WGS 84
## # A tibble: 26 × 2
##    Transect                                                             geometry
##  *    <dbl>                                                     <LINESTRING [°]>
##  1        1 (-71.86948 41.29969, -71.86826 41.2861, -71.86703 41.2725, -71.8658…
##  2        2 (-71.82872 41.30738, -71.82727 41.29106, -71.82581 41.27475, -71.82…
##  3        3 (-71.78805 41.31562, -71.78654 41.29813, -71.78505 41.28065, -71.78…
##  4        4 (-71.74674 41.31728, -71.74524 41.29967, -71.74373 41.28205, -71.74…
##  5        5 (-71.70589 41.3241, -71.70438 41.30636, -71.70288 41.28863, -71.701…
##  6        6 (-71.66578 41.33943, -71.6643 41.32185, -71.66283 41.30426, -71.661…
##  7        7 (-71.5435 41.36397, -71.542 41.34602, -71.54051 41.32807, -71.53901…
##  8        8 (-71.5015 41.35994, -71.49986 41.34227, -71.49821 41.3246, -71.4965…
##  9        9 (-71.46131 41.37378, -71.45983 41.35583, -71.45835 41.33788, -71.45…
## 10       10 (-71.421 41.38723, -71.41952 41.36946, -71.41804 41.3517, -71.41656…
## # ℹ 16 more rows
…
We can then use it to separate the segments and look at the results:

segs <- stdh_cast_substring(segs, to="LINESTRING")

## Warning in st_cast.sf(., "LINESTRING"): repeating attributes for all
## sub-geometries for which they may not be constant

segs

## Simple feature collection with 590 features and 1 field
## Geometry type: LINESTRING
## Dimension:     XY
## Bounding box:  xmin: -71.86948 ymin: 40.82944 xmax: -70.8944 ymax: 41.46521
## Geodetic CRS:  WGS 84
## # A tibble: 590 × 2
##    Transect                                 geometry
##       <dbl>                         <LINESTRING [°]>
##  1        1  (-71.86948 41.29969, -71.86826 41.2861)
##  2        1   (-71.86826 41.2861, -71.86703 41.2725)
##  3        1  (-71.86703 41.2725, -71.86581 41.25891)
##  4        2 (-71.82872 41.30738, -71.82727 41.29106)
##  5        2 (-71.82727 41.29106, -71.82581 41.27475)
##  6        2 (-71.82581 41.27475, -71.82436 41.25843)
##  7        2  (-71.82436 41.25843, -71.8229 41.24212)
##  8        2   (-71.8229 41.24212, -71.82145 41.2258)
##  9        3 (-71.78805 41.31562, -71.78654 41.29813)
## 10        3 (-71.78654 41.29813, -71.78505 41.28065)
## # ℹ 580 more rows
…
Now we can check that looks right:

segs

## Simple feature collection with 590 features and 3 fields
## Geometry type: LINESTRING
## Dimension:     XY
## Bounding box:  xmin: -71.86948 ymin: 40.82944 xmax: -70.8944 ymax: 41.46521
## Geodetic CRS:  WGS 84
## # A tibble: 590 × 4
##    Transect                                 geometry Effort Sample.Label
##  *    <dbl>                         <LINESTRING [°]>    [m] <chr>       
##  1        1  (-71.86948 41.29969, -71.86826 41.2861)  1515. 2010-RI-1-1 
##  2        1   (-71.86826 41.2861, -71.86703 41.2725)  1515. 2010-RI-1-2 
##  3        1  (-71.86703 41.2725, -71.86581 41.25891)  1515. 2010-RI-1-3 
##  4        2 (-71.82872 41.30738, -71.82727 41.29106)  1818. 2010-RI-2-1 
##  5        2 (-71.82727 41.29106, -71.82581 41.27475)  1818. 2010-RI-2-2 
##  6        2 (-71.82581 41.27475, -71.82436 41.25843)  1818. 2010-RI-2-3 
##  7        2  (-71.82436 41.25843, -71.8229 41.24212)  1818. 2010-RI-2-4 
##  8        2   (-71.8229 41.24212, -71.82145 41.2258)  1818. 2010-RI-2-5 
##  9        3 (-71.78805 41.31562, -71.78654 41.29813)  1948. 2010-RI-3-1 
## 10        3 (-71.78654 41.29813, -71.78505 41.28065)  1948. 2010-RI-3-2 
## # ℹ 580 more rows
…
## Warning: st_centroid assumes attributes are constant over geometries

# project back to lat/long
segs <- st_transform(segs, 4326)

# how does that look?
segs

## Simple feature collection with 590 features and 3 fields
## Geometry type: POINT
## Dimension:     XY
## Bounding box:  xmin: -71.86887 ymin: 40.83823 xmax: -70.89506 ymax: 41.45646
## Geodetic CRS:  WGS 84
## # A tibble: 590 × 4
##    Transect             geometry Effort Sample.Label
##  *    <dbl>          <POINT [°]>    [m] <chr>       
##  1        1 (-71.86887 41.29289)  1515. 2010-RI-1-1 
##  2        1  (-71.86764 41.2793)  1515. 2010-RI-1-2 
##  3        1  (-71.86642 41.2657)  1515. 2010-RI-1-3 
##  4        2 (-71.82799 41.29922)  1818. 2010-RI-2-1 
##  5        2  (-71.82654 41.2829)  1818. 2010-RI-2-2 
##  6        2 (-71.82508 41.26659)  1818. 2010-RI-2-3 
##  7        2 (-71.82363 41.25028)  1818. 2010-RI-2-4 
##  8        2 (-71.82218 41.23396)  1818. 2010-RI-2-5 
##  9        3 (-71.78729 41.30687)  1948. 2010-RI-3-1 
## 10        3  (-71.7858 41.28939)  1948. 2010-RI-3-2 
## # ℹ 580 more rows
…
